^C:\USERS\SEO LEGNA\DOCUMENTS\FORTYTWOLABS\TUTORIALS\LOGGINGANDUNITTESTING\STATICMATH\MATHLIBRARY\X64\DEBUG\MATHLIBRARY.OBJ
C:\USERS\SEO LEGNA\DOCUMENTS\FORTYTWOLABS\TUTORIALS\LOGGINGANDUNITTESTING\STATICMATH\MATHLIBRARY\X64\DEBUG\MATHLIBRARY.OBJ
C:\WINDOWS\SYSTEM32\TZRES.DLL
