^C:\USERS\SEO LEGNA\DOCUMENTS\FORTYTWOLABS\TUTORIALS\LOGGINGANDUNITTESTING\LOGGINGTEST\LOGGINGTEST\LOGGINGTEST.CPP
/c /I"C:\USERS\SEO LEGNA\DOCUMENTS\FORTYTWOLABS\TUTORIALS\LOGGINGANDUNITTESTING\LOGGINGTEST\EASYLOGGINGPP" /I"C:\USERS\SEO LEGNA\DOCUMENTS\FORTYTWOLABS\TUTORIALS\SQLITECPP\VCPKG\INSTALLED\X64-WINDOWS\INCLUDE" /Zi /nologo /W3 /WX- /diagnostics:column /sdl /O2 /Oi /GL /D NDEBUG /D _CONSOLE /D _UNICODE /D UNICODE /Gm- /EHsc /MD /GS /Gy /fp:precise /Zc:wchar_t /Zc:forScope /Zc:inline /permissive- /Fo"X64\RELEASE\\" /Fd"X64\RELEASE\VC143.PDB" /external:W3 /Gd /TP /FC C:\USERS\SEO LEGNA\DOCUMENTS\FORTYTWOLABS\TUTORIALS\LOGGINGANDUNITTESTING\LOGGINGTEST\LOGGINGTEST\LOGGINGTEST.CPP
^C:\USERS\SEO LEGNA\DOCUMENTS\FORTYTWOLABS\TUTORIALS\LOGGINGANDUNITTESTING\LOGGINGTEST\LOGGINGTEST\TESTFILE.CPP
/c /I"C:\USERS\SEO LEGNA\DOCUMENTS\FORTYTWOLABS\TUTORIALS\LOGGINGANDUNITTESTING\LOGGINGTEST\EASYLOGGINGPP" /I"C:\USERS\SEO LEGNA\DOCUMENTS\FORTYTWOLABS\TUTORIALS\SQLITECPP\VCPKG\INSTALLED\X64-WINDOWS\INCLUDE" /Zi /nologo /W3 /WX- /diagnostics:column /sdl /O2 /Oi /GL /D NDEBUG /D _CONSOLE /D _UNICODE /D UNICODE /Gm- /EHsc /MD /GS /Gy /fp:precise /Zc:wchar_t /Zc:forScope /Zc:inline /permissive- /Fo"X64\RELEASE\\" /Fd"X64\RELEASE\VC143.PDB" /external:W3 /Gd /TP /FC C:\USERS\SEO LEGNA\DOCUMENTS\FORTYTWOLABS\TUTORIALS\LOGGINGANDUNITTESTING\LOGGINGTEST\LOGGINGTEST\TESTFILE.CPP
