^C:\USERS\SEO LEGNA\DOCUMENTS\FORTYTWOLABS\TUTORIALS\LOGGINGANDUNITTESTING\LOGGINGTEST\LOGGINGTEST\X64\RELEASE\LOGGINGTEST.OBJ|C:\USERS\SEO LEGNA\DOCUMENTS\FORTYTWOLABS\TUTORIALS\LOGGINGANDUNITTESTING\LOGGINGTEST\LOGGINGTEST\X64\RELEASE\TESTFILE.OBJ
C:\USERS\SEO LEGNA\DOCUMENTS\FORTYTWOLABS\TUTORIALS\LOGGINGANDUNITTESTING\LOGGINGTEST\EASYLOGGINGPP\LIBRARY\EASYLOGGINGPP.LIB
C:\PROGRAM FILES (X86)\WINDOWS KITS\10\LIB\10.0.22000.0\UM\X64\KERNEL32.LIB
C:\PROGRAM FILES (X86)\WINDOWS KITS\10\LIB\10.0.22000.0\UM\X64\USER32.LIB
C:\PROGRAM FILES (X86)\WINDOWS KITS\10\LIB\10.0.22000.0\UM\X64\GDI32.LIB
C:\PROGRAM FILES (X86)\WINDOWS KITS\10\LIB\10.0.22000.0\UM\X64\WINSPOOL.LIB
C:\PROGRAM FILES (X86)\WINDOWS KITS\10\LIB\10.0.22000.0\UM\X64\COMDLG32.LIB
C:\PROGRAM FILES (X86)\WINDOWS KITS\10\LIB\10.0.22000.0\UM\X64\ADVAPI32.LIB
C:\PROGRAM FILES (X86)\WINDOWS KITS\10\LIB\10.0.22000.0\UM\X64\SHELL32.LIB
C:\PROGRAM FILES (X86)\WINDOWS KITS\10\LIB\10.0.22000.0\UM\X64\OLE32.LIB
C:\PROGRAM FILES (X86)\WINDOWS KITS\10\LIB\10.0.22000.0\UM\X64\OLEAUT32.LIB
C:\PROGRAM FILES (X86)\WINDOWS KITS\10\LIB\10.0.22000.0\UM\X64\UUID.LIB
C:\PROGRAM FILES (X86)\WINDOWS KITS\10\LIB\10.0.22000.0\UM\X64\ODBC32.LIB
C:\PROGRAM FILES (X86)\WINDOWS KITS\10\LIB\10.0.22000.0\UM\X64\ODBCCP32.LIB
C:\USERS\SEO LEGNA\DOCUMENTS\FORTYTWOLABS\TUTORIALS\LOGGINGANDUNITTESTING\LOGGINGTEST\LOGGINGTEST\X64\RELEASE\LOGGINGTEST.OBJ
C:\USERS\SEO LEGNA\DOCUMENTS\FORTYTWOLABS\TUTORIALS\LOGGINGANDUNITTESTING\LOGGINGTEST\LOGGINGTEST\X64\RELEASE\TESTFILE.OBJ
C:\WINDOWS\GLOBALIZATION\SORTING\SORTDEFAULT.NLS
C:\PROGRAM FILES\MICROSOFT VISUAL STUDIO\2022\COMMUNITY\VC\TOOLS\MSVC\14.34.31933\BIN\HOSTX64\X64\C2.DLL
C:\PROGRAM FILES\MICROSOFT VISUAL STUDIO\2022\COMMUNITY\VC\TOOLS\MSVC\14.34.31933\LIB\X64\MSVCPRT.LIB
C:\PROGRAM FILES\MICROSOFT VISUAL STUDIO\2022\COMMUNITY\VC\TOOLS\MSVC\14.34.31933\LIB\X64\MSVCRT.LIB
C:\PROGRAM FILES\MICROSOFT VISUAL STUDIO\2022\COMMUNITY\VC\TOOLS\MSVC\14.34.31933\LIB\X64\OLDNAMES.LIB
C:\PROGRAM FILES\MICROSOFT VISUAL STUDIO\2022\COMMUNITY\VC\TOOLS\MSVC\14.34.31933\LIB\X64\VCRUNTIME.LIB
C:\PROGRAM FILES (X86)\WINDOWS KITS\10\LIB\10.0.22000.0\UCRT\X64\UCRT.LIB
C:\PROGRAM FILES\MICROSOFT VISUAL STUDIO\2022\COMMUNITY\VC\TOOLS\MSVC\14.34.31933\BIN\HOSTX64\X64\1033\LINKUI.DLL
C:\USERS\SEO LEGNA\DOCUMENTS\FORTYTWOLABS\TUTORIALS\LOGGINGANDUNITTESTING\LOGGINGTEST\LOGGINGTEST\X64\RELEASE\LOGGINGTEST.IPDB
C:\USERS\SEO LEGNA\DOCUMENTS\FORTYTWOLABS\TUTORIALS\LOGGINGANDUNITTESTING\LOGGINGTEST\LOGGINGTEST\X64\RELEASE\LOGGINGTEST.IOBJ
C:\PROGRAM FILES\MICROSOFT VISUAL STUDIO\2022\COMMUNITY\VC\TOOLS\MSVC\14.34.31933\BIN\HOSTX64\X64\CVTRES.EXE
C:\WINDOWS\SYSTEM32\TZRES.DLL
C:\USERS\SEO LEGNA\DOCUMENTS\FORTYTWOLABS\TUTORIALS\LOGGINGANDUNITTESTING\LOGGINGTEST\LOGGINGTEST\X64\RELEASE\VC143.PDB
