^C:\USERS\SEO LEGNA\DOCUMENTS\FORTYTWOLABS\TUTORIALS\LOGGINGANDUNITTESTING\TRYINGOUTGTEST\TRYINGOUTGTEST\PCH.CPP
C:\USERS\SEO LEGNA\DOCUMENTS\FORTYTWOLABS\TUTORIALS\LOGGINGANDUNITTESTING\TRYINGOUTGTEST\TRYINGOUTGTEST\X64\DEBUG\TRYINGOUTGTEST.PCH
C:\USERS\SEO LEGNA\DOCUMENTS\FORTYTWOLABS\TUTORIALS\LOGGINGANDUNITTESTING\TRYINGOUTGTEST\TRYINGOUTGTEST\X64\DEBUG\VC143.PDB
C:\USERS\SEO LEGNA\DOCUMENTS\FORTYTWOLABS\TUTORIALS\LOGGINGANDUNITTESTING\TRYINGOUTGTEST\TRYINGOUTGTEST\X64\DEBUG\PCH.OBJ
^C:\USERS\SEO LEGNA\DOCUMENTS\FORTYTWOLABS\TUTORIALS\LOGGINGANDUNITTESTING\TRYINGOUTGTEST\TRYINGOUTGTEST\TEST.CPP
C:\USERS\SEO LEGNA\DOCUMENTS\FORTYTWOLABS\TUTORIALS\LOGGINGANDUNITTESTING\TRYINGOUTGTEST\TRYINGOUTGTEST\X64\DEBUG\VC143.PDB
C:\USERS\SEO LEGNA\DOCUMENTS\FORTYTWOLABS\TUTORIALS\LOGGINGANDUNITTESTING\TRYINGOUTGTEST\TRYINGOUTGTEST\X64\DEBUG\TEST.OBJ
C:\USERS\SEO LEGNA\DOCUMENTS\FORTYTWOLABS\TUTORIALS\LOGGINGANDUNITTESTING\TRYINGOUTGTEST\TRYINGOUTGTEST\X64\DEBUG\SOURCE.OBJ
^C:\USERS\SEO LEGNA\DOCUMENTS\FORTYTWOLABS\TUTORIALS\LOGGINGANDUNITTESTING\TRYINGOUTGTEST\TRYINGOUTGTEST\TEST.CPP
C:\USERS\SEO LEGNA\DOCUMENTS\FORTYTWOLABS\TUTORIALS\LOGGINGANDUNITTESTING\TRYINGOUTGTEST\TRYINGOUTGTEST\X64\DEBUG\VC143.PDB
